\relax 
\providecommand*\new@tpo@label[2]{}
\citation{hydroflex}
\citation{ferziger2019}
\citation{cushman2011introduction}
\@writefile{toc}{\contentsline {section}{\numberline {1}Problem Statement}{1}}
\@writefile{toc}{\contentsline {section}{\numberline {2}Background}{1}}
\@writefile{toc}{\contentsline {subsection}{\numberline {2.1}HydroFlex}{1}}
\@writefile{toc}{\contentsline {subsection}{\numberline {2.2}My problem formulation}{1}}
\@writefile{toc}{\contentsline {subsection}{\numberline {2.3}Physics}{1}}
\newlabel{eq:ns-momentum}{{1}{1}}
\newlabel{eq:ns-cont}{{2}{1}}
\@writefile{toc}{\contentsline {subsection}{\numberline {2.4}Study Reach}{2}}
\@writefile{lof}{\contentsline {figure}{\numberline {1}{\ignorespaces \textbf  {a)} Position of Stornorrfors in Sweden. \textbf  {b)} Position of study reach in the lower Ume river. \textbf  {c)} Key locations in the study reach and the extent of the numerical model (right).\relax }}{2}}
\providecommand*\caption@xref[2]{\@setref\relax\@undefined{#1}}
\newlabel{fig:stornorrfors}{{1}{2}}
\citation{ferziger2019}
\@writefile{lof}{\contentsline {figure}{\numberline {2}{\ignorespaces Measured bathymetry in the Stornorrfors bypass reach.\relax }}{3}}
\newlabel{fig:bathymetry}{{2}{3}}
\@writefile{toc}{\contentsline {section}{\numberline {3}Delft3D}{3}}
\@writefile{lof}{\contentsline {figure}{\numberline {3}{\ignorespaces Coarsest mesh used in this study.\relax }}{3}}
\newlabel{fig:mesh}{{3}{3}}
\citation{ferziger2019}
\citation{richardson}
\@writefile{toc}{\contentsline {section}{\numberline {4}Richardson Extrapolation}{4}}
\@writefile{toc}{\contentsline {section}{\numberline {5}Mesh Study}{4}}
\@writefile{lot}{\contentsline {table}{\numberline {1}{\ignorespaces Mesh properties for the four different meshes used in the study.\relax }}{4}}
\newlabel{fig:coarse-area}{{4a}{5}}
\newlabel{sub@fig:coarse-area}{{a}{5}}
\newlabel{fig:less-fine-area}{{4b}{5}}
\newlabel{sub@fig:less-fine-area}{{b}{5}}
\@writefile{lof}{\contentsline {figure}{\numberline {4}{\ignorespaces Wetted area .png files generated from the simulations: \textbf  {a)} coarse mesh; \textbf  {b)} less fine mesh.\relax }}{5}}
\newlabel{fig:area1}{{4}{5}}
\newlabel{fig:finer-area}{{5a}{5}}
\newlabel{sub@fig:finer-area}{{a}{5}}
\newlabel{fig:finest-area}{{5b}{5}}
\newlabel{sub@fig:finest-area}{{b}{5}}
\@writefile{lof}{\contentsline {figure}{\numberline {5}{\ignorespaces Wetted area .png files generated from the simulations: \textbf  {a)} finer mesh; \textbf  {b)} finest mesh.\relax }}{5}}
\newlabel{fig:area2}{{5}{5}}
\@writefile{lot}{\contentsline {table}{\numberline {2}{\ignorespaces Wetted area and Richardson extrapolated area. Error in percentage of the Richardson extrapolated value. The Richardson extrapolated value was obtained using the tree finest meshes.\relax }}{6}}
\@writefile{toc}{\contentsline {section}{\numberline {6}Python Code}{6}}
\@writefile{lol}{\contentsline {lstlisting}{/home/anton/phd\textendash related\textendash code/cfd\textunderscore course/project/main.py}{6}}
\bibcite{hydroflex}{1}
\bibcite{ferziger2019}{2}
\bibcite{cushman2011introduction}{3}
\bibcite{delft}{4}
\bibcite{richardson}{5}
