\relax 
\providecommand\hyper@newdestlabel[2]{}
\providecommand\HyperFirstAtBeginDocument{\AtBeginDocument}
\HyperFirstAtBeginDocument{\ifx\hyper@anchor\@undefined
\global\let\oldcontentsline\contentsline
\gdef\contentsline#1#2#3#4{\oldcontentsline{#1}{#2}{#3}}
\global\let\oldnewlabel\newlabel
\gdef\newlabel#1#2{\newlabelxx{#1}#2}
\gdef\newlabelxx#1#2#3#4#5#6{\oldnewlabel{#1}{{#2}{#3}}}
\AtEndDocument{\ifx\hyper@anchor\@undefined
\let\contentsline\oldcontentsline
\let\newlabel\oldnewlabel
\fi}
\fi}
\global\let\hyper@last\relax 
\gdef\HyperFirstAtBeginDocument#1{#1}
\providecommand\HyField@AuxAddToFields[1]{}
\providecommand\HyField@AuxAddToCoFields[2]{}
\citation{andersson2018}
\citation{burman2019inherent}
\citation{andersson2018}
\citation{burman2019inherent}
\citation{*}
\bibstyle{unsrt}
\bibdata{sample}
\bibcite{andersson2018}{\hyperlink {beamerbibandersson2018}{1}}
\bibcite{burman2019inherent}{\hyperlink {beamerbibburman2019inherent}{2}}
\bibcite{hellstrom2016simulation}{\hyperlink {beamerbibhellstrom2016simulation}{3}}
\babel@aux{english}{}
\providecommand*\caption@xref[2]{\@setref\relax\@undefined{#1}}
\newlabel{fig:reach}{{1}{1}{Ume river in proximity of Stornorrfors.\relax }{Doc-Start}{}}
\@writefile{snm}{\beamer@slide {fig:reach}{1}}
\newlabel{fig:stornorrfors}{{2}{1}{"Laxhoppet", the most upstream part of the study reach when the discharge is 15 $m^3/s$.\relax }{Doc-Start}{}}
\@writefile{snm}{\beamer@slide {fig:stornorrfors}{1}}
\newlabel{fig:transient-response-1}{{3}{1}{Validation points 1-4.\relax }{Doc-Start}{}}
\@writefile{snm}{\beamer@slide {fig:transient-response-1}{1}}
\newlabel{fig:transient-response-2}{{4}{1}{Validation points 5-8.\relax }{Doc-Start}{}}
\@writefile{snm}{\beamer@slide {fig:transient-response-2}{1}}
\newlabel{fig:normalized_water_level_contour}{{5}{1}{Contour plot of transient response.\relax }{Doc-Start}{}}
\@writefile{snm}{\beamer@slide {fig:normalized_water_level_contour}{1}}
\newlabel{fig:surface_plot}{{6}{1}{Surface plot of transient response.\relax }{Doc-Start}{}}
\@writefile{snm}{\beamer@slide {fig:surface_plot}{1}}
\newlabel{fig:transient-area}{{7}{1}{Water area as a function of time.\relax }{Doc-Start}{}}
\@writefile{snm}{\beamer@slide {fig:transient-area}{1}}
\@writefile{nav}{\headcommand {\slideentry {0}{0}{1}{1/1}{}{0}}}
\@writefile{nav}{\headcommand {\beamer@framepages {1}{1}}}
\@writefile{nav}{\headcommand {\beamer@partpages {1}{1}}}
\@writefile{nav}{\headcommand {\beamer@subsectionpages {1}{1}}}
\@writefile{nav}{\headcommand {\beamer@sectionpages {1}{1}}}
\@writefile{nav}{\headcommand {\beamer@documentpages {1}}}
\@writefile{nav}{\headcommand {\gdef \inserttotalframenumber {1}}}
